// Jest Snapshot v1, https://goo.gl/fbAQLP

exports[`docs/rules/no-dup-attr.md inline validation: correct 1`] = `Array []`;

exports[`docs/rules/no-dup-attr.md inline validation: incorrect 1`] = `
Array [
  Object {
    "errorCount": 1,
    "filePath": "inline",
    "messages": Array [
      Object {
        "column": 18,
        "context": undefined,
        "line": 1,
        "message": "Attribute \\"class\\" duplicated",
        "offset": 17,
        "ruleId": "no-dup-attr",
        "ruleUrl": "https://html-validate.org/rules/no-dup-attr.html",
        "selector": "div",
        "severity": 2,
        "size": 5,
      },
    ],
    "source": "<div class=\\"foo\\" class=\\"bar\\"></div>",
    "warningCount": 0,
  },
]
`;
