// Jest Snapshot v1, https://goo.gl/fbAQLP

exports[`docs/rules/no-dup-id.md inline validation: correct 1`] = `Array []`;

exports[`docs/rules/no-dup-id.md inline validation: incorrect 1`] = `
Array [
  Object {
    "errorCount": 1,
    "filePath": "inline",
    "messages": Array [
      Object {
        "column": 10,
        "context": undefined,
        "line": 2,
        "message": "Duplicate ID \\"foo\\"",
        "offset": 30,
        "ruleId": "no-dup-id",
        "ruleUrl": "https://html-validate.org/rules/no-dup-id.html",
        "selector": "div:nth-child(2)",
        "severity": 2,
        "size": 3,
      },
    ],
    "source": "<div id=\\"foo\\"></div>
<div id=\\"foo\\"></div>",
    "warningCount": 0,
  },
]
`;
