// Jest Snapshot v1, https://goo.gl/fbAQLP

exports[`docs/rules/no-trailing-whitespace.md inline validation: correct 1`] = `Array []`;

exports[`docs/rules/no-trailing-whitespace.md inline validation: incorrect 1`] = `
Array [
  Object {
    "errorCount": 1,
    "filePath": "inline",
    "messages": Array [
      Object {
        "column": 19,
        "context": undefined,
        "line": 1,
        "message": "Trailing whitespace",
        "offset": 18,
        "ruleId": "no-trailing-whitespace",
        "ruleUrl": "https://html-validate.org/rules/no-trailing-whitespace.html",
        "selector": null,
        "severity": 2,
        "size": 3,
      },
    ],
    "source": "<p>lorem ipsum</p>  
<p>dolor sit amet</p>",
    "warningCount": 0,
  },
]
`;
