// Jest Snapshot v1, https://goo.gl/fbAQLP

exports[`docs/rules/void-style.md inline validation: correct 1`] = `Array []`;

exports[`docs/rules/void-style.md inline validation: incorrect 1`] = `
Array [
  Object {
    "errorCount": 1,
    "filePath": "inline",
    "messages": Array [
      Object {
        "column": 7,
        "context": Object {
          "style": 1,
          "tagName": "input",
        },
        "line": 1,
        "message": "Expected omitted end tag <input> instead of self-closing element <input/>",
        "offset": 6,
        "ruleId": "void-style",
        "ruleUrl": "https://html-validate.org/rules/void-style.html",
        "selector": "input",
        "severity": 2,
        "size": 2,
      },
    ],
    "source": "<input/>",
    "warningCount": 0,
  },
]
`;
